…
8. Saving the data (Is there really no easier way?)
- The write_csv function was used for this, however the only reason why I have managed to do this is thanks to another student asking about it and putting a screenshot. So I have no idea how to do this easier....
>write_csv("/Users/evaeskelinen/Documents/GitHub/IODS/data/learning2015.csv")

9. Reading data
> read_csv("/Users/evaeskelinen/Documents/GitHub/IODS/data/learning2015.csv")
    Rows: 166 Columns: 7                                                                                    
    ── Column specification ─────────────────────────────────────────────
    Delimiter: ","
    chr (1): gender
    dbl (6): Age, Attitude, deep, stra, surf, Points
    
    ℹ Use `spec()` to retrieve the full column specification for this data.
    ℹ Specify the column types or set `show_col_types = FALSE` to quiet this message.
    # A tibble: 166 × 7
    gender   Age Attitude  deep  stra  surf Points
    <chr>  <dbl>    <dbl> <dbl> <dbl> <dbl>  <dbl>
      1 F         53       37  3.58  3.38  2.58     25
    2 M         55       31  2.92  2.75  3.17     12
    3 F         49       25  3.5   3.62  2.25     24
    4 M         53       35  3.5   3.12  2.25     10
    5 M         49       37  3.67  3.62  2.83     22
    6 F         38       38  4.75  3.62  2.42     21
    7 M         50       35  3.83  2.25  1.92     21
    8 F         37       29  3.25  4     2.83     31
    9 M         37       38  4.33  4.25  2.17     24
    10 F         42       21  4     3.5   3        26
    # … with 156 more rows
    # ℹ Use `print(n = ...)` to see more rows
…
